{
  "ABC.es": {
    "domain": "abc.es",
    "allow_cookies": 1,
    "block_regex": "(\\.evolok\\.net\\/|cdn\\.ampproject\\.org\\/v\\d\\/amp-access-.+\\.js)",
    "useragent": "googlebot",
    "amp_redirect": ".cierre-suscripcion:not([style=\"display: none;\"]"
  },
  "Aftonbladet": {
    "domain": "aftonbladet.se",
    "allow_cookies": 1,
    "useragent": "googlebot"
  },
  "Automobilwoche": {
    "domain": "automobilwoche.de",
    "allow_cookies": 1,
    "block_regex": "\\.amazonaws\\.com\\/s3fs-public\\/js\\/js_.+\\.js"
  },
  "Better Nutrition": {
    "domain": "betternutrition.com",
    "group_rule": "###_gr_usa_outside_mag_domains"
  },
  "El Espectador": {
    "domain": "elespectador.com",
    "allow_cookies": 1,
    "block_regex": "(\\.tinypass\\.com\\/|cdn\\.cxense\\.com\\/|cdn\\.ampproject\\.org\\/v\\d\\/amp-subscriptions-.+\\.js)",
    "amp_redirect": "div.exclusive_validation"
  },
  "El País": {
    "domain": "elpais.com",
    "allow_cookies": 1,
    "block_regex": "(\\/elpais\\.com\\/arc\\/subs\\/p\\.min\\.js|cdn\\.ampproject\\.org\\/v\\d\\/amp-access-.+\\.js)"
  },
  "eNotes": {
    "domain": "enotes.com",
    "allow_cookies": 1,
    "cs_code": [{
        "cond": "section.c-cta-section",
        "rm_elem": 1,
        "elems": [{
            "cond": "div[class^=\"_\"]",
            "rm_attrib": "class"
          }, {
            "cond": "div.o-rte-text > p:not([class]), div.o-rte-text > h3a",
            "rm_elem": 1
          }
        ]
      }
    ]
  },
  "Fortune": {
    "domain": "fortune.com",
    "allow_cookies": 1,
    "block_regex": "(\\.tinypass\\.com\\/|cdn\\.ampproject\\.org\\/v\\d\\/amp-access-.+\\.js)",
    "cs_code": [{
        "cond": "div.paywallActive",
        "rm_attrib": "class"
      }
    ]
  },
  "Gym Climber": {
    "domain": "gymclimber.com",
    "group_rule": "###_gr_usa_outside_mag_domains"
  },
  "Investors' Chronicle": {
    "allow_cookies": 1,
    "domain": "investorschronicle.co.uk",
    "referer": "google"
  },
  "Italia Oggi": {
    "domain": "italiaoggi.it",
    "allow_cookies": 1,
    "ld_json": "div.boxAbb|div.article-locked",
    "new_site": 1
  },
  "Outlook India": {
    "domain": "outlookindia.com",
    "allow_cookies": 1,
    "ld_json": "div.paywall|div#articleBody",
    "new_site": 1
  },
  "Peloton": {
    "domain": "pelotonmagazine.com",
    "group_rule": "###_gr_usa_outside_mag_domains"
  },
  "Podium Runner": {
    "domain": "podiumrunner.com",
    "group_rule": "###_gr_usa_outside_mag_domains"
  },
  "Rock and Ice": {
    "domain": "rockandice.com",
    "group_rule": "###_gr_usa_outside_mag_domains"
  },
  "Vogue Business": {
    "allow_cookies": 1,
    "domain": "voguebusiness.com",
    "useragent": "googlebot",
    "block_regex": "cdn\\.ampproject\\.org\\/v\\d\\/amp-subscriptions-.+\\.js",
    "amp_redirect": "div[class*=\"PaywallInlineBarrier\"]",
    "amp_unhide": 1,
    "new_site": 1
  },
  "###_gr_usa_outside_mag_domains": {
    "group_rule_domains": ["betternutrition.com", "gymclimber.com", "pelotonmagazine.com", "podiumrunner.com", "rockandice.com"],
    "allow_cookies": 1,
    "block_regex": "\\.{domain}\\/.+\\/scripts\\/contentGate.+\\.js",
    "cs_code": [{
        "cond": "div.o-membership-overlay",
        "rm_elem": 1,
        "elems": [{
            "cond": "[class*=\"is-gated\"]",
            "rm_class": "is-gated,is-gated--flexible-layout"
          }
        ]
      }
    ]
  }
}
